{
  "project_info": {
    "project_number": "662933858797",
    "firebase_url": "https://vvish-9b432.firebaseio.com",
    "project_id": "vvish-9b432",
    "storage_bucket": "vvish-9b432.appspot.com"
  },
  "client": [
    {
      "client_info": {
        "mobilesdk_app_id": "1:662933858797:android:fd6259f9bd5a2166",
        "android_client_info": {
          "package_name": "com.vvish"
        }
      },
      "oauth_client": [
        {
          "client_id": "662933858797-hf4tpkdd8j09g8r5ibn1o0s5nop245fl.apps.googleusercontent.com",
          "client_type": 3
        }
      ],
      "api_key": [
        {
          "current_key": "AIzaSyCMRqHyYobi7bJ6l-10j6EltQYfW9SX9rA"
        }
      ],
      "services": {
        "appinvite_service": {
          "other_platform_oauth_client": [
            {
              "client_id": "662933858797-hf4tpkdd8j09g8r5ibn1o0s5nop245fl.apps.googleusercontent.com",
              "client_type": 3
            }
          ]
        }
      }
    }
  ],
  "configuration_version": "1"
}